name,slices,sccmult,scc,discount,interest,hourly,fuel,gens,build
scc12,12,1,"federal_scc_2021-2049.csv",0.035,0.05,"psco_hourly_2021-2049.csv","psco_fuel_cost_2021-2049.csv","psco_gens_switch.csv","nrelatb_gen_build_costs.csv"
noscc12,12,0,"federal_scc_2021-2049.csv",0.035,0.05,"psco_hourly_2021-2049.csv","psco_fuel_cost_2021-2049.csv","psco_gens_switch.csv","nrelatb_gen_build_costs.csv"
scm12,12,1,"federal_scc_2021-2049.csv",0.035,0.05,"psco_hourly_2021-2049.csv","scm_fuel_cost_2021-2049.csv","psco_gens_switch.csv","nrelatb_gen_build_costs.csv"
seba_noscc12,12,0,"federal_scc_2021-2049.csv",0.035,0.05,"psco_hourly_2021-2049.csv","psco_fuel_cost_2021-2049.csv","psco_gens_switch.csv","seba_gen_build_costs.csv"
seba_scc12,12,1,"federal_scc_2021-2049.csv",0.035,0.05,"psco_hourly_2021-2049.csv","psco_fuel_cost_2021-2049.csv","psco_gens_switch.csv","seba_gen_build_costs.csv"
seba_scm12,12,1,"federal_scc_2021-2049.csv",0.035,0.05,"psco_hourly_2021-2049.csv","scm_fuel_cost_2021-2049.csv","psco_gens_switch.csv","seba_gen_build_costs.csv"