GENERATION_PROJECT,Parameter,Value,Units
gen_tech,
build_year,
gen_load_zone,
gen_connect_cost_per_mw,
gen_capacity_limit_mw,
gen_full_load_heat_rate,
gen_variable_om,
gen_max_age,
gen_min_build_capacity,
gen_scheduled_outage_rate,
gen_forced_outage_rate,
gen_is_variable,
gen_is_baseload,
gen_is_cogen,
gen_energy_source,
gen_unit_size,
gen_ccs_capture_efficiency,
gen_ccs_energy_load,
gen_storage_efficiency,
gen_store_to_release_ratio

Old_CCGT,Natural gas CCGT,PSCO,0.0,.,9.11,1.95,30,.,.,.,0,0,.,NaturalGas,.,.,.,.,.
Old_CT,Natural gas CT,PSCO,0.0,.,10.73,1.46,30,.,.,.,0,0,.,NaturalGas,.,.,.,.,.
Old_Steam,Natural gas steam,PSCO,0.0,.,10.63,2.0,30,.,.,.,0,0,.,NaturalGas,.,.,.,.,.
Old_Coal,Supercritical Coal,PSCO,0.0,.,10.14,2.0,30,.,.,.,0,1,.,Coal,.,.,.,.,.
